^D:\FALL 2020\GAME ENGINE\PROJECT 01.1\GRAPHICSLIBRARY\SIMPLEGRAPHICS\PROJECT FILES\MAIN.CPP
D:\FALL 2020\GAME ENGINE\PROJECT 01.1\GRAPHICSLIBRARY\SIMPLEGRAPHICS\PROJECT FILES\DEBUG\VC142.PDB
D:\FALL 2020\GAME ENGINE\PROJECT 01.1\GRAPHICSLIBRARY\SIMPLEGRAPHICS\PROJECT FILES\DEBUG\VC142.IDB
D:\FALL 2020\GAME ENGINE\PROJECT 01.1\GRAPHICSLIBRARY\SIMPLEGRAPHICS\PROJECT FILES\DEBUG\MAIN.OBJ
