^D:\FALL 2020\GAME ENGINE\PROJECT 01.1\GRAPHICSLIBRARY\SIMPLEGRAPHICS\PROJECT FILES\DEBUG\MAIN.OBJ
D:\FALL 2020\GAME ENGINE\PROJECT 01.1\GRAPHICSLIBRARY\SIMPLEGRAPHICS\DEBUG\SDL IMAGE GENERATOR.EXE
D:\FALL 2020\GAME ENGINE\PROJECT 01.1\GRAPHICSLIBRARY\SIMPLEGRAPHICS\DEBUG\SDL IMAGE GENERATOR.ILK
D:\FALL 2020\GAME ENGINE\PROJECT 01.1\GRAPHICSLIBRARY\SIMPLEGRAPHICS\DEBUG\SDL IMAGE GENERATOR.PDB
