^D:\FALL 2020\GAME ENGINE\PROJECT 01.1\GRAPHICSLIBRARY\GRAPHICSLIBRARY\DEBUG\GLMAIN.OBJ
D:\FALL 2020\GAME ENGINE\PROJECT 01.1\GRAPHICSLIBRARY\DEBUG\GRAPHICSLIBRARY.DLL
D:\FALL 2020\GAME ENGINE\PROJECT 01.1\GRAPHICSLIBRARY\DEBUG\GRAPHICSLIBRARY.ILK
D:\FALL 2020\GAME ENGINE\PROJECT 01.1\GRAPHICSLIBRARY\DEBUG\GRAPHICSLIBRARY.PDB
