#Command: "C:\Program Files (x86)\Microsoft Visual Studio\2019\Community\VC\Tools\MSVC\14.27.29110\bin\HostX86\x86\link.exe" /ERRORREPORT:PROMPT @C:\Users\danal\AppData\Local\Temp\tmpb82cb8df9a4449c597dc0b49e68ab255.rsp /nologo /incremental /fullbuild
^D:\FALL 2020\GAME ENGINE\PROJECT 01.1\GRAPHICSLIBRARY\GRAPHICSLIBRARY\DEBUG\GLMAIN.OBJ
C:\USERS\DANAL\APPDATA\LOCAL\TEMP\LNK{25349011-52CE-4AF2-85E4-4F0FB2F7FCB2}.TMP
