^D:\FALL 2020\GAME ENGINE\PROJECT 01.1\GRAPHICSLIBRARY\SIMPLEGRAPHICS\PROJECT FILES\SIMPLEGRAPHICS\SIMPLEGRAPHICS.CPP
D:\FALL 2020\GAME ENGINE\PROJECT 01.1\GRAPHICSLIBRARY\SIMPLEGRAPHICS\PROJECT FILES\SIMPLEGRAPHICS\DEBUG\VC142.PDB
D:\FALL 2020\GAME ENGINE\PROJECT 01.1\GRAPHICSLIBRARY\SIMPLEGRAPHICS\PROJECT FILES\SIMPLEGRAPHICS\DEBUG\VC142.IDB
D:\FALL 2020\GAME ENGINE\PROJECT 01.1\GRAPHICSLIBRARY\SIMPLEGRAPHICS\PROJECT FILES\SIMPLEGRAPHICS\DEBUG\SIMPLEGRAPHICS.OBJ
