^C:\Users\danal\OneDrive\Documents\Fall 2020\Game Engine\Practice 03\SimpleGraphics\Project files\SimpleGraphics\SimpleGraphics.vcxproj
C:\Users\danal\OneDrive\Documents\Fall 2020\Game Engine\Practice 03\SimpleGraphics\Debug\SimpleGraphics.lib
C:\Users\danal\OneDrive\Documents\Fall 2020\Game Engine\Practice 03\SimpleGraphics\Debug\SimpleGraphics.exp
^D:\Fall 2020\Game Engine\Project 01\temp\SimpleGraphics\Project files\SimpleGraphics\SimpleGraphics.vcxproj
D:\Fall 2020\Game Engine\Project 01\temp\SimpleGraphics\Debug\SimpleGraphics.lib
D:\Fall 2020\Game Engine\Project 01\temp\SimpleGraphics\Debug\SimpleGraphics.exp
^D:\Fall 2020\Game Engine\Project 01.1\GraphicsLibrary\SimpleGraphics\Project files\SimpleGraphics\SimpleGraphics.vcxproj
D:\Fall 2020\Game Engine\Project 01.1\GraphicsLibrary\SimpleGraphics\Debug\SimpleGraphics.lib
D:\Fall 2020\Game Engine\Project 01.1\GraphicsLibrary\SimpleGraphics\Debug\SimpleGraphics.exp
