^C:\USERS\DANAL\ONEDRIVE\DOCUMENTS\FALL 2020\GAME ENGINE\PRACTICE 03\SIMPLEGRAPHICS\PROJECT FILES\DEBUG\MAIN.OBJ
C:\USERS\DANAL\ONEDRIVE\DOCUMENTS\FALL 2020\GAME ENGINE\PRACTICE 03\SIMPLEGRAPHICS\DEBUG\SDL IMAGE GENERATOR.EXE
C:\USERS\DANAL\ONEDRIVE\DOCUMENTS\FALL 2020\GAME ENGINE\PRACTICE 03\SIMPLEGRAPHICS\DEBUG\SDL IMAGE GENERATOR.ILK
C:\USERS\DANAL\ONEDRIVE\DOCUMENTS\FALL 2020\GAME ENGINE\PRACTICE 03\SIMPLEGRAPHICS\DEBUG\SDL IMAGE GENERATOR.PDB
