^D:\FALL 2020\GAME ENGINE\PROJECT 01.1\GRAPHICS DEMO\GRAPHICS DEMO\DEBUG\GDMAIN.OBJ
D:\FALL 2020\GAME ENGINE\PROJECT 01.1\GRAPHICSLIBRARY\DEBUG\GRAPHICS DEMO.EXE
D:\FALL 2020\GAME ENGINE\PROJECT 01.1\GRAPHICSLIBRARY\DEBUG\GRAPHICS DEMO.ILK
D:\FALL 2020\GAME ENGINE\PROJECT 01.1\GRAPHICSLIBRARY\DEBUG\GRAPHICS DEMO.PDB
